%!PS-Adobe-3.0 EPSF-3.0
%%Creator: (MATLAB, The Mathworks, Inc. Version 9.5.0.944444 \(R2018b\). Operating System: Windows 10)
%%Title: (C:/Users/pietr/Google Drive/research/versioning quests/machine learning/ghexin/experiments/synthesis/img/psnr.eps)
%%CreationDate: 2018-12-17T11:12:18
%%Pages: (atend)
%%BoundingBox: 0 0 420 315
%%LanguageLevel: 3
%%EndComments
%%BeginProlog
%%BeginResource: procset (Apache XML Graphics Std ProcSet) 1.2 0
%%Version: 1.2 0
%%Copyright: (Copyright 2001-2003,2010 The Apache Software Foundation. License terms: http://www.apache.org/licenses/LICENSE-2.0)
/bd{bind def}bind def
/ld{load def}bd
/GR/grestore ld
/GS/gsave ld
/RM/rmoveto ld
/C/curveto ld
/t/show ld
/L/lineto ld
/ML/setmiterlimit ld
/CT/concat ld
/f/fill ld
/N/newpath ld
/S/stroke ld
/CC/setcmykcolor ld
/A/ashow ld
/cp/closepath ld
/RC/setrgbcolor ld
/LJ/setlinejoin ld
/GC/setgray ld
/LW/setlinewidth ld
/M/moveto ld
/re {4 2 roll M
1 index 0 rlineto
0 exch rlineto
neg 0 rlineto
cp } bd
/_ctm matrix def
/_tm matrix def
/BT { _ctm currentmatrix pop matrix _tm copy pop 0 0 moveto } bd
/ET { _ctm setmatrix } bd
/iTm { _ctm setmatrix _tm concat } bd
/Tm { _tm astore pop iTm 0 0 moveto } bd
/ux 0.0 def
/uy 0.0 def
/F {
  /Tp exch def
  /Tf exch def
  Tf findfont Tp scalefont setfont
  /cf Tf def  /cs Tp def
} bd
/ULS {currentpoint /uy exch def /ux exch def} bd
/ULE {
  /Tcx currentpoint pop def
  gsave
  newpath
  cf findfont cs scalefont dup
  /FontMatrix get 0 get /Ts exch def /FontInfo get dup
  /UnderlinePosition get Ts mul /To exch def
  /UnderlineThickness get Ts mul /Tt exch def
  ux uy To add moveto  Tcx uy To add lineto
  Tt setlinewidth stroke
  grestore
} bd
/OLE {
  /Tcx currentpoint pop def
  gsave
  newpath
  cf findfont cs scalefont dup
  /FontMatrix get 0 get /Ts exch def /FontInfo get dup
  /UnderlinePosition get Ts mul /To exch def
  /UnderlineThickness get Ts mul /Tt exch def
  ux uy To add cs add moveto Tcx uy To add cs add lineto
  Tt setlinewidth stroke
  grestore
} bd
/SOE {
  /Tcx currentpoint pop def
  gsave
  newpath
  cf findfont cs scalefont dup
  /FontMatrix get 0 get /Ts exch def /FontInfo get dup
  /UnderlinePosition get Ts mul /To exch def
  /UnderlineThickness get Ts mul /Tt exch def
  ux uy To add cs 10 mul 26 idiv add moveto Tcx uy To add cs 10 mul 26 idiv add lineto
  Tt setlinewidth stroke
  grestore
} bd
/QT {
/Y22 exch store
/X22 exch store
/Y21 exch store
/X21 exch store
currentpoint
/Y21 load 2 mul add 3 div exch
/X21 load 2 mul add 3 div exch
/X21 load 2 mul /X22 load add 3 div
/Y21 load 2 mul /Y22 load add 3 div
/X22 load /Y22 load curveto
} bd
/SSPD {
dup length /d exch dict def
{
/v exch def
/k exch def
currentpagedevice k known {
/cpdv currentpagedevice k get def
v cpdv ne {
/upd false def
/nullv v type /nulltype eq def
/nullcpdv cpdv type /nulltype eq def
nullv nullcpdv or
{
/upd true def
} {
/sametype v type cpdv type eq def
sametype {
v type /arraytype eq {
/vlen v length def
/cpdvlen cpdv length def
vlen cpdvlen eq {
0 1 vlen 1 sub {
/i exch def
/obj v i get def
/cpdobj cpdv i get def
obj cpdobj ne {
/upd true def
exit
} if
} for
} {
/upd true def
} ifelse
} {
v type /dicttype eq {
v {
/dv exch def
/dk exch def
/cpddv cpdv dk get def
dv cpddv ne {
/upd true def
exit
} if
} forall
} {
/upd true def
} ifelse
} ifelse
} if
} ifelse
upd true eq {
d k v put
} if
} if
} if
} forall
d length 0 gt {
d setpagedevice
} if
} bd
/RE { % /NewFontName [NewEncodingArray] /FontName RE -
  findfont dup length dict begin
  {
    1 index /FID ne
    {def} {pop pop} ifelse
  } forall
  /Encoding exch def
  /FontName 1 index def
  currentdict definefont pop
  end
} bind def
%%EndResource
%%BeginResource: procset (Apache XML Graphics EPS ProcSet) 1.0 0
%%Version: 1.0 0
%%Copyright: (Copyright 2002-2003 The Apache Software Foundation. License terms: http://www.apache.org/licenses/LICENSE-2.0)
/BeginEPSF { %def
/b4_Inc_state save def         % Save state for cleanup
/dict_count countdictstack def % Count objects on dict stack
/op_count count 1 sub def      % Count objects on operand stack
userdict begin                 % Push userdict on dict stack
/showpage { } def              % Redefine showpage, { } = null proc
0 setgray 0 setlinecap         % Prepare graphics state
1 setlinewidth 0 setlinejoin
10 setmiterlimit [ ] 0 setdash newpath
/languagelevel where           % If level not equal to 1 then
{pop languagelevel             % set strokeadjust and
1 ne                           % overprint to their defaults.
{false setstrokeadjust false setoverprint
} if
} if
} bd
/EndEPSF { %def
count op_count sub {pop} repeat            % Clean up stacks
countdictstack dict_count sub {end} repeat
b4_Inc_state restore
} bd
%%EndResource
%FOPBeginFontDict
%%IncludeResource: font Courier-Oblique
%%IncludeResource: font Courier-BoldOblique
%%IncludeResource: font Courier-Bold
%%IncludeResource: font ZapfDingbats
%%IncludeResource: font Symbol
%%IncludeResource: font Helvetica
%%IncludeResource: font Helvetica-Oblique
%%IncludeResource: font Helvetica-Bold
%%IncludeResource: font Helvetica-BoldOblique
%%IncludeResource: font Times-Roman
%%IncludeResource: font Times-Italic
%%IncludeResource: font Times-Bold
%%IncludeResource: font Times-BoldItalic
%%IncludeResource: font Courier
%FOPEndFontDict
%%BeginResource: encoding WinAnsiEncoding
/WinAnsiEncoding [
/.notdef /.notdef /.notdef /.notdef /.notdef
/.notdef /.notdef /.notdef /.notdef /.notdef
/.notdef /.notdef /.notdef /.notdef /.notdef
/.notdef /.notdef /.notdef /.notdef /.notdef
/.notdef /.notdef /.notdef /.notdef /.notdef
/.notdef /.notdef /.notdef /.notdef /.notdef
/.notdef /.notdef /space /exclam /quotedbl
/numbersign /dollar /percent /ampersand /quotesingle
/parenleft /parenright /asterisk /plus /comma
/hyphen /period /slash /zero /one
/two /three /four /five /six
/seven /eight /nine /colon /semicolon
/less /equal /greater /question /at
/A /B /C /D /E
/F /G /H /I /J
/K /L /M /N /O
/P /Q /R /S /T
/U /V /W /X /Y
/Z /bracketleft /backslash /bracketright /asciicircum
/underscore /quoteleft /a /b /c
/d /e /f /g /h
/i /j /k /l /m
/n /o /p /q /r
/s /t /u /v /w
/x /y /z /braceleft /bar
/braceright /asciitilde /bullet /Euro /bullet
/quotesinglbase /florin /quotedblbase /ellipsis /dagger
/daggerdbl /circumflex /perthousand /Scaron /guilsinglleft
/OE /bullet /Zcaron /bullet /bullet
/quoteleft /quoteright /quotedblleft /quotedblright /bullet
/endash /emdash /asciitilde /trademark /scaron
/guilsinglright /oe /bullet /zcaron /Ydieresis
/space /exclamdown /cent /sterling /currency
/yen /brokenbar /section /dieresis /copyright
/ordfeminine /guillemotleft /logicalnot /sfthyphen /registered
/macron /degree /plusminus /twosuperior /threesuperior
/acute /mu /paragraph /middot /cedilla
/onesuperior /ordmasculine /guillemotright /onequarter /onehalf
/threequarters /questiondown /Agrave /Aacute /Acircumflex
/Atilde /Adieresis /Aring /AE /Ccedilla
/Egrave /Eacute /Ecircumflex /Edieresis /Igrave
/Iacute /Icircumflex /Idieresis /Eth /Ntilde
/Ograve /Oacute /Ocircumflex /Otilde /Odieresis
/multiply /Oslash /Ugrave /Uacute /Ucircumflex
/Udieresis /Yacute /Thorn /germandbls /agrave
/aacute /acircumflex /atilde /adieresis /aring
/ae /ccedilla /egrave /eacute /ecircumflex
/edieresis /igrave /iacute /icircumflex /idieresis
/eth /ntilde /ograve /oacute /ocircumflex
/otilde /odieresis /divide /oslash /ugrave
/uacute /ucircumflex /udieresis /yacute /thorn
/ydieresis
] def
%%EndResource
%FOPBeginFontReencode
/Courier-Oblique findfont
dup length dict begin
  {1 index /FID ne {def} {pop pop} ifelse} forall
  /Encoding WinAnsiEncoding def
  currentdict
end
/Courier-Oblique exch definefont pop
/Courier-BoldOblique findfont
dup length dict begin
  {1 index /FID ne {def} {pop pop} ifelse} forall
  /Encoding WinAnsiEncoding def
  currentdict
end
/Courier-BoldOblique exch definefont pop
/Courier-Bold findfont
dup length dict begin
  {1 index /FID ne {def} {pop pop} ifelse} forall
  /Encoding WinAnsiEncoding def
  currentdict
end
/Courier-Bold exch definefont pop
/Helvetica findfont
dup length dict begin
  {1 index /FID ne {def} {pop pop} ifelse} forall
  /Encoding WinAnsiEncoding def
  currentdict
end
/Helvetica exch definefont pop
/Helvetica-Oblique findfont
dup length dict begin
  {1 index /FID ne {def} {pop pop} ifelse} forall
  /Encoding WinAnsiEncoding def
  currentdict
end
/Helvetica-Oblique exch definefont pop
/Helvetica-Bold findfont
dup length dict begin
  {1 index /FID ne {def} {pop pop} ifelse} forall
  /Encoding WinAnsiEncoding def
  currentdict
end
/Helvetica-Bold exch definefont pop
/Helvetica-BoldOblique findfont
dup length dict begin
  {1 index /FID ne {def} {pop pop} ifelse} forall
  /Encoding WinAnsiEncoding def
  currentdict
end
/Helvetica-BoldOblique exch definefont pop
/Times-Roman findfont
dup length dict begin
  {1 index /FID ne {def} {pop pop} ifelse} forall
  /Encoding WinAnsiEncoding def
  currentdict
end
/Times-Roman exch definefont pop
/Times-Italic findfont
dup length dict begin
  {1 index /FID ne {def} {pop pop} ifelse} forall
  /Encoding WinAnsiEncoding def
  currentdict
end
/Times-Italic exch definefont pop
/Times-Bold findfont
dup length dict begin
  {1 index /FID ne {def} {pop pop} ifelse} forall
  /Encoding WinAnsiEncoding def
  currentdict
end
/Times-Bold exch definefont pop
/Times-BoldItalic findfont
dup length dict begin
  {1 index /FID ne {def} {pop pop} ifelse} forall
  /Encoding WinAnsiEncoding def
  currentdict
end
/Times-BoldItalic exch definefont pop
/Courier findfont
dup length dict begin
  {1 index /FID ne {def} {pop pop} ifelse} forall
  /Encoding WinAnsiEncoding def
  currentdict
end
/Courier exch definefont pop
%FOPEndFontReencode
%%EndProlog
%%Page: 1 1
%%PageBoundingBox: 0 0 420 315
%%BeginPageSetup
[1 0 0 -1 0 315] CT
%%EndPageSetup
GS
[0.6 0 0 0.6 0 0] CT
1 GC
N
0 0 700 525 re
f
GR
GS
[0.6 0 0 0.6 0 0] CT
1 GC
N
0 0 700 525 re
f
GR
GS
[0.6 0 0 0.6 0 0] CT
1 GC
N
91 454 M
634 454 L
634 39 L
91 39 L
cp
f
GR
GS
[0.6 0 0 0.6 0 0] CT
0.149 GC
1 LJ
0.833 LW
N
91 454 M
634 454 L
S
GR
GS
[0.6 0 0 0.6 0 0] CT
0 0.447 0.741 RC
N
190.55 454 M
190.55 146.277 L
142.283 146.277 L
142.283 454 L
cp
462.05 454 M
462.05 169.725 L
413.783 169.725 L
413.783 454 L
cp
f
GR
GS
[0.6 0 0 0.6 0 0] CT
10.0 ML
0.833 LW
N
142.283 454 M
142.283 146.277 L
190.55 146.277 L
190.55 454 L
cp
S
GR
GS
[0.6 0 0 0.6 0 0] CT
10.0 ML
0.833 LW
N
413.783 454 M
413.783 169.725 L
462.05 169.725 L
462.05 454 L
cp
S
GR
GS
[0.6 0 0 0.6 0 0] CT
0.851 0.325 0.098 RC
N
250.883 454 M
250.883 167.65 L
202.617 167.65 L
202.617 454 L
cp
522.383 454 M
522.383 167.442 L
474.117 167.442 L
474.117 454 L
cp
f
GR
GS
[0.6 0 0 0.6 0 0] CT
10.0 ML
0.833 LW
N
202.617 454 M
202.617 167.65 L
250.883 167.65 L
250.883 454 L
cp
S
GR
GS
[0.6 0 0 0.6 0 0] CT
10.0 ML
0.833 LW
N
474.117 454 M
474.117 167.442 L
522.383 167.442 L
522.383 454 L
cp
S
GR
GS
[0.6 0 0 0.6 0 0] CT
0.929 0.694 0.125 RC
N
311.217 454 M
311.217 141.92 L
262.95 141.92 L
262.95 454 L
cp
582.717 454 M
582.717 174.497 L
534.45 174.497 L
534.45 454 L
cp
f
GR
GS
[0.6 0 0 0.6 0 0] CT
10.0 ML
0.833 LW
N
262.95 454 M
262.95 141.92 L
311.217 141.92 L
311.217 454 L
cp
S
GR
GS
[0.6 0 0 0.6 0 0] CT
10.0 ML
0.833 LW
N
534.45 454 M
534.45 174.497 L
582.717 174.497 L
582.717 454 L
cp
S
GR
GS
[0.6 0 0 0.6 0 0] CT
0.149 GC
2 setlinecap
1 LJ
0.833 LW
N
91 454 M
634 454 L
S
GR
GS
[0.6 0 0 0.6 0 0] CT
0.149 GC
2 setlinecap
1 LJ
0.833 LW
N
91 39 M
634 39 L
S
GR
GS
[0.6 0 0 0.6 0 0] CT
0.149 GC
2 setlinecap
1 LJ
0.833 LW
N
226.75 454 M
226.75 448.57 L
S
GR
GS
[0.6 0 0 0.6 0 0] CT
0.149 GC
2 setlinecap
1 LJ
0.833 LW
N
498.25 454 M
498.25 448.57 L
S
GR
GS
[0.6 0 0 0.6 0 0] CT
0.149 GC
2 setlinecap
1 LJ
0.833 LW
N
226.75 39 M
226.75 44.43 L
S
GR
GS
[0.6 0 0 0.6 0 0] CT
0.149 GC
2 setlinecap
1 LJ
0.833 LW
N
498.25 39 M
498.25 44.43 L
S
GR
GS
[0.6 0 0 0.6 136.05 277.2] CT
0.149 GC
/Helvetica 23.333 F
GS
[1 0 0 1 0 0] CT
-37 24 moveto 
1 -1 scale
(X letter) t 
GR
GR
GS
[0.6 0 0 0.6 298.95 277.2] CT
0.149 GC
/Helvetica 23.333 F
GS
[1 0 0 1 0 0] CT
-36 24 moveto 
1 -1 scale
(square) t 
GR
GR
GS
[0.6 0 0 0.6 217.50015 295.59999] CT
0.149 GC
/Helvetica 25.667 F
GS
[1 0 0 1 0 0] CT
-70 26 moveto 
1 -1 scale
(experiments) t 
GR
GR
GS
[0.6 0 0 0.6 0 0] CT
0.149 GC
2 setlinecap
1 LJ
0.833 LW
N
91 454 M
91 39 L
S
GR
GS
[0.6 0 0 0.6 0 0] CT
0.149 GC
2 setlinecap
1 LJ
0.833 LW
N
634 454 M
634 39 L
S
GR
GS
[0.6 0 0 0.6 0 0] CT
0.149 GC
2 setlinecap
1 LJ
0.833 LW
N
91 454 M
96.43 454 L
S
GR
GS
[0.6 0 0 0.6 0 0] CT
0.149 GC
2 setlinecap
1 LJ
0.833 LW
N
91 350.25 M
96.43 350.25 L
S
GR
GS
[0.6 0 0 0.6 0 0] CT
0.149 GC
2 setlinecap
1 LJ
0.833 LW
N
91 246.5 M
96.43 246.5 L
S
GR
GS
[0.6 0 0 0.6 0 0] CT
0.149 GC
2 setlinecap
1 LJ
0.833 LW
N
91 142.75 M
96.43 142.75 L
S
GR
GS
[0.6 0 0 0.6 0 0] CT
0.149 GC
2 setlinecap
1 LJ
0.833 LW
N
91 39 M
96.43 39 L
S
GR
GS
[0.6 0 0 0.6 0 0] CT
0.149 GC
2 setlinecap
1 LJ
0.833 LW
N
634 454 M
628.57 454 L
S
GR
GS
[0.6 0 0 0.6 0 0] CT
0.149 GC
2 setlinecap
1 LJ
0.833 LW
N
634 350.25 M
628.57 350.25 L
S
GR
GS
[0.6 0 0 0.6 0 0] CT
0.149 GC
2 setlinecap
1 LJ
0.833 LW
N
634 246.5 M
628.57 246.5 L
S
GR
GS
[0.6 0 0 0.6 0 0] CT
0.149 GC
2 setlinecap
1 LJ
0.833 LW
N
634 142.75 M
628.57 142.75 L
S
GR
GS
[0.6 0 0 0.6 0 0] CT
0.149 GC
2 setlinecap
1 LJ
0.833 LW
N
634 39 M
628.57 39 L
S
GR
GS
[0.6 0 0 0.6 49.8 272.4] CT
0.149 GC
/Helvetica 23.333 F
GS
[1 0 0 1 0 0] CT
-13 9 moveto 
1 -1 scale
(0) t 
GR
GR
GS
[0.6 0 0 0.6 49.8 210.15] CT
0.149 GC
/Helvetica 23.333 F
GS
[1 0 0 1 0 0] CT
-13 9 moveto 
1 -1 scale
(5) t 
GR
GR
GS
[0.6 0 0 0.6 49.8 147.9] CT
0.149 GC
/Helvetica 23.333 F
GS
[1 0 0 1 0 0] CT
-26 9 moveto 
1 -1 scale
(10) t 
GR
GR
GS
[0.6 0 0 0.6 49.8 85.65] CT
0.149 GC
/Helvetica 23.333 F
GS
[1 0 0 1 0 0] CT
-26 9 moveto 
1 -1 scale
(15) t 
GR
GR
GS
[0.6 0 0 0.6 49.8 23.4] CT
0.149 GC
/Helvetica 23.333 F
GS
[1 0 0 1 0 0] CT
-26 9 moveto 
1 -1 scale
(20) t 
GR
GR
GS
[0 -0.6 0.6 0 31.2 147.89988] CT
0.149 GC
/Helvetica 25.667 F
GS
[1 0 0 1 0 0] CT
-36 -6 moveto 
1 -1 scale
(PSNR) t 
GR
GR
GS
[0.6 0 0 0.6 0 0] CT
1 GC
N
621 149 M
621 52 L
480 52 L
480 149 L
cp
f
GR
GS
[0.6 0 0 0.6 323.31262 41.78182] CT
/Helvetica 23.333 F
GS
[1 0 0 1 0 0] CT
0 9 moveto 
1 -1 scale
(gh-exin) t 
GR
GR
GS
[0.6 0 0 0.6 0 0] CT
0 0.447 0.741 RC
N
535.098 80.974 M
535.098 58.299 L
485.009 58.299 L
485.009 80.974 L
cp
f
GR
GS
[0.6 0 0 0.6 0 0] CT
10.0 ML
0.833 LW
N
485.009 80.974 M
485.009 58.299 L
535.098 58.299 L
535.098 80.974 L
cp
S
GR
GS
[0.6 0 0 0.6 323.31262 60.3] CT
/Helvetica 23.333 F
GS
[1 0 0 1 0 0] CT
0 9 moveto 
1 -1 scale
(dgsot) t 
GR
GR
GS
[0.6 0 0 0.6 0 0] CT
0.851 0.325 0.098 RC
N
535.098 111.838 M
535.098 89.162 L
485.009 89.162 L
485.009 111.838 L
cp
f
GR
GS
[0.6 0 0 0.6 0 0] CT
10.0 ML
0.833 LW
N
485.009 111.838 M
485.009 89.162 L
535.098 89.162 L
535.098 111.838 L
cp
S
GR
GS
[0.6 0 0 0.6 323.31262 78.81818] CT
/Helvetica 23.333 F
GS
[1 0 0 1 0 0] CT
0 9 moveto 
1 -1 scale
(ghng) t 
GR
GR
GS
[0.6 0 0 0.6 0 0] CT
0.929 0.694 0.125 RC
N
535.098 142.701 M
535.098 120.026 L
485.009 120.026 L
485.009 142.701 L
cp
f
GR
GS
[0.6 0 0 0.6 0 0] CT
10.0 ML
0.833 LW
N
485.009 142.701 M
485.009 120.026 L
535.098 120.026 L
535.098 142.701 L
cp
S
GR
GS
[0.6 0 0 0.6 0 0] CT
0.149 GC
10.0 ML
0.833 LW
N
480 149 M
480 52 L
621 52 L
621 149 L
cp
S
GR
%%Trailer
%%Pages: 1
%%EOF
